{
  "discordToken": "aeCheiShi0beeJ4faihichie.zah9Gu.thie4qua0OhLaedo8Ae-Quee9Ie",
  "googleKey": "",
  "channelName": "bot",
  "adminName": "Teeee",
  "adminId": "6590",
  "hookerName": "Captain Hook"
}
